{
  "props" : {
    "id" : "category-list.ux",
    "title" : "類別列表",
    "clipsToSafeArea" : true
  },
  "views" : [
    {
      "props" : {
        "frame" : {
          "y" : 230,
          "x" : 138,
          "width" : 100,
          "height" : 100
        },
        "bgcolor" : {
          "$type" : "$color",
          "$props" : {
            "red" : 238,
            "alpha" : 1,
            "blue" : 241,
            "green" : 241
          }
        },
        "id" : "add-item"
      },
      "constraints" : [
        {
          "relation" : 0,
          "multiplier" : 1,
          "x" : {
            "id" : "add-item",
            "attribute" : 1
          },
          "constant" : 0
        },
        {
          "relation" : 0,
          "multiplier" : 1,
          "x" : {
            "id" : "add-item",
            "attribute" : 2
          },
          "constant" : 0
        },
        {
          "relation" : 0,
          "multiplier" : 1,
          "x" : {
            "id" : "add-item",
            "attribute" : 3
          },
          "constant" : 0
        },
        {
          "relation" : 0,
          "multiplier" : 1,
          "x" : {
            "id" : "add-item",
            "attribute" : 8
          },
          "constant" : 50
        }
      ],
      "type" : "view",
      "views" : [
        {
          "props" : {
            "frame" : {
              "y" : 11,
              "x" : 28,
              "width" : 320,
              "height" : 36
            },
            "id" : "add-item--input",
            "placeholder" : "新增",
            "radius" : 5
          },
          "constraints" : [
            {
              "y" : {
                "id" : "add-item",
                "attribute" : 1
              },
              "relation" : 0,
              "multiplier" : 1,
              "x" : {
                "id" : "add-item--input",
                "attribute" : 1
              },
              "constant" : 10
            },
            {
              "y" : {
                "id" : "add-item",
                "attribute" : 2
              },
              "relation" : 0,
              "multiplier" : 1,
              "x" : {
                "id" : "add-item--input",
                "attribute" : 2
              },
              "constant" : -10
            },
            {
              "y" : {
                "id" : "add-item",
                "attribute" : 10
              },
              "relation" : 0,
              "multiplier" : 1,
              "x" : {
                "id" : "add-item--input",
                "attribute" : 10
              },
              "constant" : 0
            },
            {
              "relation" : 0,
              "multiplier" : 1,
              "x" : {
                "id" : "add-item--input",
                "attribute" : 8
              },
              "constant" : 36
            }
          ],
          "type" : "input",
          "events" : {
            "returned" : {
              "$type" : "$event",
              "$props" : {
                "selector" : "handleAddInputReturned"
              }
            }
          }
        }
      ]
    },
    {
      "props" : {
        "frame" : {
          "y" : 160,
          "x" : 28,
          "width" : 320,
          "height" : 240
        },
        "data" : [

        ],
        "id" : "main-list",
        "bgcolor" : {
          "$type" : "$color",
          "$props" : {
            "red" : 238,
            "alpha" : 1,
            "blue" : 241,
            "green" : 241
          }
        },
        "keyboardDismissMode" : 1,
        "$header" : {
          "props" : {
            "id" : "<T>$HEADER",
            "height" : 44
          }
        },
        "actions" : [
          {
            "title" : "刪除",
            "color" : {
              "$type" : "$color",
              "$props" : {
                "red" : 255,
                "alpha" : 1,
                "blue" : 48,
                "green" : 59
              }
            },
            "handler" : {
              "$type" : "$event",
              "$props" : {
                "selector" : "handleListItemDeleteTapped"
              }
            }
          },
          {
            "title" : "編輯",
            "color" : {
              "$type" : "$color",
              "$props" : {
                "red" : 21,
                "alpha" : 1,
                "blue" : 251,
                "green" : 126
              }
            },
            "handler" : {
              "$type" : "$event",
              "$props" : {
                "selector" : "handleListItemEditTapped"
              }
            }
          }
        ]
      },
      "constraints" : [
        {
          "x" : {
            "id" : "main-list",
            "attribute" : 1
          },
          "multiplier" : 1,
          "constant" : 0
        },
        {
          "x" : {
            "id" : "main-list",
            "attribute" : 2
          },
          "multiplier" : 1,
          "constant" : 0
        },
        {
          "y" : {
            "id" : "add-item",
            "attribute" : 4
          },
          "multiplier" : 1,
          "x" : {
            "id" : "main-list",
            "attribute" : 3
          },
          "constant" : 0
        },
        {
          "x" : {
            "id" : "main-list",
            "attribute" : 4
          },
          "multiplier" : 1,
          "constant" : 0
        }
      ],
      "type" : "list",
      "events" : {
        "ready" : {
          "$type" : "$event",
          "$props" : {
            "selector" : "handleListReady"
          }
        },
        "didSelect" : {
          "$type" : "$event",
          "$props" : {
            "selector" : "handleRowDidSelect"
          }
        }
      }
    }
  ]
}